Linear Regression-1
…
ID

Score

beauty average

Age

evals_disc11 <- evals %>% 
  select(ID, score, bty_avg, age)

evals_disc11

## # A tibble: 463 x 4
##       ID score bty_avg   age
##    <int> <dbl>   <dbl> <int>
##  1     1   4.7    5       36
##  2     2   4.1    5       36
##  3     3   3.9    5       36
##  4     4   4.8    5       36
##  5     5   4.6    3       59
##  6     6   4.3    3       59
##  7     7   2.8    3       59
##  8     8   4.1    3.33    51
##  9     9   3.4    3.33    51
## 10    10   4.5    3.17    40
## # ... with 453 more rows
…
