Linear Regression-1
…
Age

Gender

Rank

Cls_students

evals_disc12 <- evals %>% 
  select(ID, score, gender, age, rank, cls_students, ethnicity)

evals_disc12

## # A tibble: 463 x 7
##       ID score gender   age rank         cls_students ethnicity   
##    <int> <dbl> <fct>  <int> <fct>               <int> <fct>       
##  1     1   4.7 female    36 tenure track           43 minority    
##  2     2   4.1 female    36 tenure track          125 minority    
##  3     3   3.9 female    36 tenure track          125 minority    
##  4     4   4.8 female    36 tenure track          123 minority    
##  5     5   4.6 male      59 tenured                20 not minority
##  6     6   4.3 male      59 tenured                40 not minority
##  7     7   2.8 male      59 tenured                44 not minority
##  8     8   4.1 male      51 tenured                55 not minority
##  9     9   3.4 male      51 tenured               195 not minority
## 10    10   4.5 female    40 tenured                46 not minority
## # ... with 453 more rows
…
